R Conversations
…
5.24 Gather

The gather command from tidyverse is a quick way to smush this data into a tall format. The gather command creates two new columns, the key column which collects your old column names and your value column which collects the row values (fairly self-explanatory).

The trick with gather is that it will smush everything it can into those two columns, so you need to tell it which columns not to include. This is the step that eluded me for a whole afternoon once, so I’m stating it very obviously here.

talldata <- data %>%
  gather (key = LikertScale, value = PercRespondents,
          -group1,
          -group2,
          -q,
          -n)
talldata

## # A tibble: 24 x 6
##    group1 group2 q         n LikertScale PercRespondents
##    <chr>  <chr>  <chr> <dbl> <chr>                 <dbl>
##  1 A      X      Q1      121 disagree               0.8 
##  2 A      X      Q2      121 disagree               0.3 
##  3 A      Y      Q1      140 disagree               0.8 
##  4 A      Y      Q2      140 disagree               0.2 
##  5 B      X      Q1       50 disagree               0.7 
##  6 B      X      Q2       50 disagree               0.5 
##  7 B      Z      Q1       57 disagree               0.6 
##  8 B      Z      Q2       57 disagree               0.3 
##  9 A      X      Q1      121 neutral                0.05
## 10 A      X      Q2      121 neutral                0.4 
## # ... with 14 more rows
…
